20

3
Austin
Dallas
Houston
1 2 3
2 1 3
2 3 1
1 2 3
3 1 2

1
Austin Dallas
1
1
1
1
1

7
Austin
Dallas
Houston
Chicago
Miami
Seattle
San Jose
6 3 1 2 4 5 7
1 6 5 3 2 7 4
7 5 4 6 1 2 3
6 7 4 2 5 1 3
1 6 2 7 4 3 5
5 4 3 2 1 6 7

2
Austin
Dallas
2 1
1 2
2 1
1 2
1 2

6
Austin
Dallas
Houston
Miami
Philly
San Antonio
1 2 3 4 5 6
1 2 3 4 5 6
2 3 4 6 1 5

4
Boston
Austin
Miami
Houston
1 2 3 4

3
Austin
Boston
Chicago
3 1 2
2 3 1

5
Texas
Pennsylvania
California
Washington
New York
2 4 5 3 1
3 1 4 5 2
5 4 1 2 3
4 2 3 1 5
3 4 5 1 2

2
Austin
Boston
2 1
1 2
2 1
1 2
2 1
1 2
1 2
1 2
1 2
2 1
1 2
2 1
2 1
1 2
2 1

5
Alabama
Arkansas
Arizona
Alaska
California
1 2 4 5 3
1 2 3 4 5
5 4 3 2 1
5 4 3 2 1
2 3 4 5 1
3 4 5 1 2
4 5 1 2 3
5 4 3 2 1

4
Pink
Blue
Orange
Yellow
3 2 1 4
2 4 3 1
2 3 4 1
3 1 2 4
1 2 4 3
1 2 3 4
1 2 3 4
4 3 2 1
1 2 3 4
3 2 1 4
4 2 1 3
1 3 2 4
1 2 4 3

1
Santi Dasari
1

8
Alabama
Hawaii
California
Delaware
New York
Florida
Georgia
Texas
5 6 2 3 1 4 7 8
5 6 1 8 2 3 7 4
4 2 6 3 5 1 8 7
2 7 3 1 4 6 5 8
5 6 1 4 7 3 2 8
1 2 3 4 5 6 7 8
8 7 6 5 4 3 2 1

6
Austin
Boston
Houston
Chicago
Dallas
Miami
4 6 5 3 2 1
6 4 3 2 1 5
3 5 1 6 4 2
3 1 5 4 2 6
1 2 5 4 3 6
3 5 2 6 4 1
3 4 2 5 1 6
2 4 1 3 6 5
5 1 3 4 6 2
6 2 4 1 5 3
5 6 3 2 1 4
1 2 6 4 5 3
1 4 2 3 6 5
1 2 3 4 5 6
3 2 1 4 5 6
6 5 4 3 2 1
4 5 3 2 6 1

4
Austin
Boston
Chicago
Dallas
1 2 3 4
4 3 2 1
1 2 3 4
4 3 2 1
2 3 4 1
1 4 2 3
3 2 1 4
4 1 3 2
1 2 4 3
4 3 2 1
1 4 2 3

5
Austin
Boston
Chicago
Miami
Dallas
1 2 3 4 5
5 4 3 2 1
1 2 5 4 3
3 4 5 1 2
2 1 5 4 3
1 2 3 4 5

3
Florida
California
Texas
1 2 3
2 1 3

2
Texas
Oklahoma
1 2
1 2
1 2
2 1
2 1
2 1
1 2

4
Austin
Houston
Dallas
Boston
1 2 4 3
4 1 2 3
4 3 2 1

3
Austin
Dallas
Houston
1 2 3
3 2 1
1 2 3
2 1 3
3 1 2
